Solve a real-world churn problem with Machine learning (including a detailed case study) · Manos Antoniou
…
# Predictions on test data
pred_logistic <- predict(Logistic_model, newdata = test_data, type = 'prob')

pred_rf <- predict(rf_model, newdata = test_data, type = 'prob')

pred_xgb <- predict(xgb_model, newdata = test_data, type = 'prob')

evaluation_tbl <- tibble(true_class     = test_data$Churn,
                         logistic_churn = pred_logistic$Yes,
                         rf_churn       = pred_rf$Yes,
                         xgb_churn      = pred_xgb$Yes)

evaluation_tbl

## # A tibble: 2,999 x 4
##    true_class logistic_churn rf_churn xgb_churn
##    <fct>               <dbl>    <dbl>     <dbl>
##  1 Yes                0.125     0.276    0.297 
##  2 No                 0.234     0.178    0.0503
##  3 Yes                0.289     0.758    0.997 
##  4 No                 0.112     0.158    0.0631
##  5 No                 0.0600    0.002    0.0139
##  6 No                 0.160     0.006    0.0324
##  7 No                 0.0991    0.002    0.0349
##  8 No                 0.0669    0.042    0.0267
##  9 No                 0.232     0.164    0.246 
## 10 No                 0.0311    0.056    0.0181
## # … with 2,989 more rows
…
